From Basics to Advanced Health Analytics: Exploring Diabetes Data
…
cat_balance <- cluster_data_2025 %>%
  select_if(is.factor) %>%
  pivot_longer(cols = everything(),
               names_to = "variable",
               values_to = "category") %>%
  count(variable, category, name = "n") %>%
  group_by(variable) %>%
  mutate(pct = round(100 * n / sum(n), 1),
         is_rare = (n / sum(n)) < 0.05 ) %>%
  ungroup() %>%
  arrange(variable, desc(n))

cat_balance

# A tibble: 25 × 5
   variable  category          n   pct is_rare
   <chr>     <fct>         <int> <dbl> <lgl>  
 1 age_group 40–49            88  35.2 FALSE  
 2 age_group 50–59            87  34.8 FALSE  
 3 age_group 60+              75  30   FALSE  
 4 bmi_cat   Normal weight   102  40.8 FALSE  
 5 bmi_cat   Overweight       78  31.2 FALSE  
 6 bmi_cat   Obesity          46  18.4 FALSE  
 7 bmi_cat   Underweight      24   9.6 FALSE  
 8 country   Brazil           67  26.8 FALSE  
 9 country   China            50  20   FALSE  
10 country   Italy            50  20   FALSE  
# ℹ 15 more rows
…
